id,users_id,start_date,end_date,name,description,country_origin,city_origin,photo,deleted_at,created_at,updated_at
1,1,"2017-12-12 08:00:00","2017-12-12 09:00:00",A,NULL,NULL,NULL,...,NULL,"2017-03-31 09:10:30","2017-03-31 09:10:30"
2,1,"2017-12-12 08:00:00","2017-12-12 09:00:00",B,NULL,NULL,NULL,...,NULL,"2017-03-31 09:12:02","2017-03-31 09:12:02"
